[
  {
    "id": "1",
    "text": "Ride a bike",
    "complete": false
  },
  {
    "id": "2",
    "text": "Make food",
    "complete": false
  },
  {
    "id": "3",
    "text": "Exercise",
    "complete": false
  },
  {
    "id": "4",
    "text": "Do the dishes",
    "complete": false
  },
  {
    "id": "5",
    "text": "Floss my teeth",
    "complete": false
  },
  {
    "id": "6",
    "text": "Play videogames",
    "complete": false
  },
  {
    "id": "c3a0f0c9-ab0e-44ea-968e-cf6e81000f8b",
    "text": "Complete notes exercise",
    "complete": true
  },
  {
    "id": "02e1d495-2d8e-4647-84f5-b246775fb376",
    "text": "Make context work",
    "complete": true
  }
]